[
  {
    "field": "TRACK",
    "field--2": "HEEP software license"
  },
  {
    "field--3": "Access to HEEP dashboard 2020",
    "Starter": "(-)",
    "Expert": "(-)",
    "early_bird": "X"
  },
  {
    "field--3": "Access to all GEURS results 2019-20",
    "Starter": "(-)",
    "Expert": "(-)",
    "early_bird": "X"
  },
  {
    "field--3": "Access to all GEURS results 2021",
    "Starter": "(-)",
    "Expert": "X",
    "early_bird": "X"
  },
  {
    "field--3": "Access to HEEP dashboard 2021",
    "Starter": "X",
    "Expert": "X",
    "early_bird": "X"
  },
  {
    "field": "ACT",
    "field--2": "Workshops and Master Class"
  },
  {
    "field--3": "1 customized workshop",
    "Starter": "(-)",
    "Expert": "(-)",
    "early_bird": "X"
  },
  {
    "field--3": "1 \"Onboarding and training\" workshop - \"How to use HEEP",
    "Starter": "X",
    "Expert": "X",
    "early_bird": "X"
  },
  {
    "field--3": "1 \"GEURS Results\" workshop",
    "Starter": "X",
    "Expert": "X",
    "early_bird": "X"
  },
  {
    "field--3": "1 \"Action plan\" workshop",
    "Starter": "(-)",
    "Expert": "X",
    "early_bird": "X"
  },
  {
    "field": "ANALYSE",
    "field--2": "Employability reports 2021 - to understand"
  },
  {
    "field--3": "Global market trends 2011-2021",
    "Starter": "X",
    "Expert": "X",
    "early_bird": "X"
  },
  {
    "field--3": "Best performing universities worldwide",
    "Starter": "X",
    "Expert": "X",
    "early_bird": "X"
  },
  {
    "field--3": "Most international university brands",
    "Starter": "X",
    "Expert": "X",
    "early_bird": "X"
  },
  {
    "field--3": "Your internationalization potential",
    "Starter": "(-)",
    "Expert": "X",
    "early_bird": "X"
  },
  {
    "field--3": "Country performance comparison",
    "Starter": "(-)",
    "Expert": "X",
    "early_bird": "X"
  },
  {
    "field--3": "Your international market position",
    "Starter": "(-)",
    "Expert": "X",
    "early_bird": "X"
  },
  {
    "field--3": "Your international competitors",
    "Starter": "(-)",
    "Expert": "X",
    "early_bird": "X"
  },
  {
    "field--3": "Your position and competitors in your market segments \n(employer industry, region, department, etc.)",
    "Starter": "(-)",
    "Expert": "X",
    "early_bird": "X"
  },
  {
    "field--3": "Performance of your country",
    "Starter": "(-)",
    "Expert": "X*",
    "early_bird": "X"
  },
  {
    "field--3": "What universities perform well in your country",
    "Starter": "(-)",
    "Expert": "X*",
    "early_bird": "X"
  },
  {
    "field--3": "Your local market position",
    "Starter": "(-)",
    "Expert": "X*",
    "early_bird": "X"
  },
  {
    "field--3": "Your local competitors",
    "Starter": "(-)",
    "Expert": "X*",
    "early_bird": "X"
  },
  {
    "field--3": "Your position and competitors in your local market segments",
    "Starter": "(-)",
    "Expert": "(-)",
    "early_bird": "X"
  },

  {
    "field--2": "Performance reports 2021 - to go deeper"
  },
  {
    "field--3": "The 6 drivers of performance worldwide",
    "Starter": "X",
    "Expert": "X",
    "early_bird": "X"
  },
  {
    "field--3": "Global market expectations on 20 indicators of employability performance",
    "Starter": "X",
    "Expert": "X",
    "early_bird": "X"
  },
  {
    "field--3": "Analysis of your voters’ profile",
    "Starter": "(-)",
    "Expert": "X",
    "early_bird": "X"
  },
  {
    "field--3": "Analysis of the voters’ profile of your competitors",
    "Starter": "(-)",
    "Expert": "X",
    "early_bird": "X"
  },
  {
    "field--3": "What drives your performance",
    "Starter": "(-)",
    "Expert": "X",
    "early_bird": "X"
  },
  {
    "field--3": "What drives the performance of your competitors",
    "Starter": "(-)",
    "Expert": "X",
    "early_bird": "X"
  },
  {
    "field--3": "General levers to improve your performance",
    "Starter": "(-)",
    "Expert": "X",
    "early_bird": "X"
  },
  {
    "field--3": "Partner matching: universities with similar profiles",
    "Starter": "(-)",
    "Expert": "X",
    "early_bird": "X"
  },
  {
    "field--3": "Market expectations on 20 indicators of performance in your market segments \n(employer's country, industry, specilization, etc.)",
    "Starter": "(-)",
    "Expert": "X",
    "early_bird": "X"
  },
  {
    "field--3": "Your performance on 20 indicators of employability performance",
    "Starter": "(-)",
    "Expert": "(-)",
    "early_bird": "X"
  },
  {
    "field--3": "Your competitor's performance on 20 indicators of employability performance",
    "Starter": "(-)",
    "Expert": "(-)",
    "early_bird": "X"
  },
  {
    "field--3": "Gap analysis and recommendations",
    "Starter": "(-)",
    "Expert": "(-)",
    "early_bird": "X"
  },
  {
    "field--3": "The 6 drivers of performance in your country",
    "Starter": "(-)",
    "Expert": "X*",
    "early_bird": "X"
  },
  {
    "field--3": "Local market expectations on 20 indicators of employability performance",
    "Starter": "(-)",
    "Expert": "X*",
    "early_bird": "X"
  },
  {
    "field--3": "Analysis of your voters’ profile",
    "Starter": "(-)",
    "Expert": "X*",
    "early_bird": "X"
  },
  {
    "field--3": "Analysis of the voters’ profile of your competitors",
    "Starter": "(-)",
    "Expert": "X*",
    "early_bird": "X"
  },
  {
    "field--3": "What drives your performance",
    "Starter": "(-)",
    "Expert": "X*",
    "early_bird": "X"
  },
  {
    "field--3": "What drives the performance of your competitors",
    "Starter": "(-)",
    "Expert": "X*",
    "early_bird": "X"
  },
  {
    "field--3": "General levers to improve your performance",
    "Starter": "(-)",
    "Expert": "X*",
    "early_bird": "X"
  },
  {
    "field--3": "Partner matching: universities with similar profiles",
    "Starter": "(-)",
    "Expert": "X*",
    "early_bird": "X"
  },
  {
    "field--3": "Market expectations on 20 indicators of performance in your market segments \n(employer's country, industry, specilization, etc.)",
    "Starter": "(-)",
    "Expert": "(-)",
    "early_bird": "X"
  },
  {
    "field--3": "Your employability performance on 20 indicators",
    "Starter": "(-)",
    "Expert": "(-)",
    "early_bird": "X"
  },
  {
    "field--3": "Your competitor's employability performance on 20 indicators",
    "Starter": "(-)",
    "Expert": "(-)",
    "early_bird": "X"
  },
  {
    "field--3": "Gap analysis and recommendations",
    "Starter": "(-)",
    "Expert": "(-)",
    "early_bird": "X"
  },

  {
    "field--2": "Best practice report 2021- to take measures"
  },
  {
    "field--3": "How to push forward digitalization",
    "Starter": "(-)",
    "Expert": "X",
    "early_bird": "X"
  },

  {
    "field--3": "Graduate skills for the digital workplace",
    "Starter": "(-)",
    "Expert": "X",
    "early_bird": "X"
  },
  {
    "field--3": "Industry cooperation models that work",
    "Starter": "(-)",
    "Expert": "X",
    "early_bird": "X"
  },
  {
    "field--3": "Best practices examples and case studies",
    "Starter": "(-)",
    "Expert": "X",
    "early_bird": "X"
  },
  {
    "field--3": "What graduate skills to develop",
    "Starter": "(-)",
    "Expert": "(-)",
    "early_bird": "X"
  },
  {
    "field--3": "Curriculum strategy to foster the right skills in your institution",
    "Starter": "(-)",
    "Expert": "(-)",
    "early_bird": "X"
  },
  {
    "field--3": "Industry cooperation models that work for your institution",
    "Starter": "(-)",
    "Expert": "(-)",
    "early_bird": "X"
  },
  {
    "field--3": "<p class='text-right mr-4 mt-2 font-weight-bold'>Price for 1 year subscription </p>",
    "Starter": "8.000 €",
    "Expert": "15.000 €",
    "early_bird": "8.000 €"
  }
]
