TRACK,HEEP software license,,,,
,,Access to HEEP dashboard 2020,(-),(-),X
,,Access to all GEURS results 2019-20,(-),(-),X
,,Access to all GEURS results 2021,(-),X,X
,,Access to HEEP dashboard 2021,X,X,X
ACT,Workshops and Master Class,,,,
,,1 customized workshop,(-),(-),X
,,"1 ""Onboarding and training"" workshop - ""How to use HEEP""",X,X,X
,,"1 ""GEURS Results"" workshop",X,X,X
,,"1 ""Action plan"" workshop",(-),X,X
ANALYSE,Employability reports 2021 - to understand,,,,
,,Global market trends 2011-2021,X,X,X
,,Best performing universities worldwide,X,X,X
,NEW 2021,Most international university brands,X,X,X
Customized,NEW 2021,Your internationalization potential,(-),X,X
Customized,,Country performance comparison,(-),X,X
Customized,,Your international market position,(-),X,X
Customized,,Your international competitors,(-),X,X
Customized,,"Your position and competitors in your market segments 
(employer industry, region, department, etc.)",(-),X,X
,,Performance of your country,(-),X*,X
,,What universities perform well in your country,(-),X*,X
Customized,,Your local market position,(-),X*,X
Customized,,Your local competitors,(-),X*,X
Customized,,Your position and competitors in your local market segments,(-),(-),X
,,,,* depending on country,
,Performance reports 2021 - to go deeper,,,,
,,The 6 drivers of performance worldwide,X,X,X
,,Global market expectations on 20 indicators of employability performance,X,X,X
Customized,,Analysis of your voters’ profile,(-),X,X
Customized,,Analysis of the voters’ profile of your competitors,(-),X,X
Customized,,What drives your performance,(-),X,X
Customized,,What drives the performance of your competitors,(-),X,X
Customized,,General levers to improve your performance,(-),X,X
Customized,,Partner matching: universities with similar profiles,(-),X,X
Customized,,"Market expectations on 20 indicators of performance in your market segments 
(employer's country, industry, specilization, etc.)",(-),X,X
Customized,,Your performance on 20 indicators of employability performance,(-),(-),X
Customized,,Your competitor's performance on 20 indicators of employability performance,(-),(-),X
Customized,,Gap analysis and recommendations,(-),(-),X
,,The 6 drivers of performance in your country,(-),X*,X
,,Local market expectations on 20 indicators of employability performance,(-),X*,X
Customized,,Analysis of your voters’ profile,(-),X*,X
Customized,,Analysis of the voters’ profile of your competitors,(-),X*,X
Customized,,What drives your performance,(-),X*,X
Customized,,What drives the performance of your competitors,(-),X*,X
Customized,,General levers to improve your performance,(-),X*,X
Customized,,Partner matching: universities with similar profiles,(-),X*,X
Customized,,"Market expectations on 20 indicators of performance in your market segments 
(employer's country, industry, specilization, etc.)",(-),(-),X
Customized,,Your employability performance on 20 indicators,(-),(-),X
Customized,,Your competitor's employability performance on 20 indicators,(-),(-),X
Customized,,Gap analysis and recommendations,(-),(-),X
,,,,* depending on country,
,Best practice report 2021- to take measures,,,,
,,How to push forward digitalization,(-),X,X
,NEW 2021,How to push forward internationalization,(-),X,X
,,Graduate skills for the digital workplace,(-),X,X
,,Industry cooperation models that work,(-),X,X
,,Best practices examples and case studies,(-),X,X
Customized,,What graduate skills to develop,(-),(-),X
Customized,,Curriculum strategy to foster the right skills in your institution,(-),(-),X
Customized,,Industry cooperation models that work for your institution,(-),(-),X
,,,,,
,,,,,
,,,,,
,,,4500,12000,8000